\relax 
\@writefile{toc}{\contentsline {chapter}{\numberline {1}Introduction}{1}}
\@writefile{lof}{\addvspace {10\p@ }}
\@writefile{lot}{\addvspace {10\p@ }}
\newlabel{Introduction}{{1}{1}}
\@writefile{toc}{\contentsline {section}{\numberline {1.1}Introduction to WiFi: IEEE 802.11}{1}}
\@writefile{toc}{\contentsline {section}{\numberline {1.2}Introduction to Ethernet: IEEE 802.3}{2}}
\@writefile{toc}{\contentsline {section}{\numberline {1.3}A Comparison of WiFi and Ethernet:}{3}}
\@writefile{toc}{\contentsline {subsection}{\numberline {1.3.1}Connections}{3}}
\@writefile{toc}{\contentsline {subsection}{\numberline {1.3.2}Coverage}{4}}
\@writefile{toc}{\contentsline {subsection}{\numberline {1.3.3}Security}{4}}
\@writefile{toc}{\contentsline {subsection}{\numberline {1.3.4}Speed/Rate}{5}}
\@writefile{toc}{\contentsline {subsection}{\numberline {1.3.5}Latency}{5}}
\@writefile{toc}{\contentsline {section}{\numberline {1.4}Interoperability Between WiFi And Ethernet:}{6}}
\@writefile{toc}{\contentsline {section}{\numberline {1.5}Organization Of The Report}{7}}
\@setckpt{ch1Intro}{
\setcounter{page}{9}
\setcounter{equation}{0}
\setcounter{enumi}{0}
\setcounter{enumii}{0}
\setcounter{enumiii}{0}
\setcounter{enumiv}{0}
\setcounter{footnote}{0}
\setcounter{mpfootnote}{0}
\setcounter{part}{0}
\setcounter{chapter}{1}
\setcounter{section}{5}
\setcounter{subsection}{0}
\setcounter{subsubsection}{0}
\setcounter{paragraph}{0}
\setcounter{subparagraph}{0}
\setcounter{figure}{0}
\setcounter{table}{0}
\setcounter{ContinuedFloat}{0}
\setcounter{subfigure}{0}
\setcounter{subtable}{0}
\setcounter{parentequation}{0}
\setcounter{pp@next@reset}{0}
\setcounter{@pps}{0}
\setcounter{@ppsavesec}{0}
\setcounter{@ppsaveapp}{0}
}
