\relax 
\citation{danezis2008bridging}
\@writefile{toc}{\contentsline {chapter}{\numberline {2}Background}{5}}
\@writefile{lof}{\addvspace {10\p@ }}
\@writefile{lot}{\addvspace {10\p@ }}
\newlabel{BackGround}{{2}{5}}
\@writefile{toc}{\contentsline {section}{\numberline {2.1}Tor Overview}{5}}
\citation{danezis2005traffic}
\citation{edman2009awareness}
\citation{murdoch2007sampled}
\citation{wright2004predecessor}
\citation{overlier2006locating}
\@writefile{toc}{\contentsline {section}{\numberline {2.2}Entry Guard Relays}{7}}
\newlabel{SecEntryGuardRelays}{{2.2}{7}}
\citation{overlier2006locating}
\citation{TorSpecDirectoryProtocol3}
\providecommand*\caption@xref[2]{\@setref\relax\@undefined{#1}}
\newlabel{Algo1}{{\caption@xref {Algo1}{ on input line 69}}{10}}
\@setckpt{ch2Background}{
\setcounter{page}{12}
\setcounter{equation}{0}
\setcounter{enumi}{0}
\setcounter{enumii}{0}
\setcounter{enumiii}{0}
\setcounter{enumiv}{0}
\setcounter{footnote}{0}
\setcounter{mpfootnote}{0}
\setcounter{part}{0}
\setcounter{chapter}{2}
\setcounter{section}{2}
\setcounter{subsection}{0}
\setcounter{subsubsection}{0}
\setcounter{paragraph}{0}
\setcounter{subparagraph}{0}
\setcounter{figure}{0}
\setcounter{table}{0}
\setcounter{ContinuedFloat}{0}
\setcounter{subfigure}{0}
\setcounter{subtable}{0}
\setcounter{parentequation}{0}
\setcounter{pp@next@reset}{0}
\setcounter{@pps}{0}
\setcounter{@ppsavesec}{0}
\setcounter{@ppsaveapp}{0}
}
