\relax 
\citation{Torperf}
\@writefile{toc}{\contentsline {chapter}{\numberline {3}COGS Framework}{12}}
\@writefile{lof}{\addvspace {10\p@ }}
\@writefile{lot}{\addvspace {10\p@ }}
\newlabel{COGS}{{3}{12}}
\@writefile{lof}{\contentsline {figure}{\numberline {3.1}{\ignorespaces \emph  {COGS framework}\relax }}{12}}
\newlabel{FigCOGSFramework}{{3.1}{12}}
\citation{Torperf}
\citation{murdoch2008metrics}
\@setckpt{ch3Cogs}{
\setcounter{page}{19}
\setcounter{equation}{0}
\setcounter{enumi}{3}
\setcounter{enumii}{0}
\setcounter{enumiii}{0}
\setcounter{enumiv}{0}
\setcounter{footnote}{0}
\setcounter{mpfootnote}{0}
\setcounter{part}{0}
\setcounter{chapter}{3}
\setcounter{section}{0}
\setcounter{subsection}{0}
\setcounter{subsubsection}{0}
\setcounter{paragraph}{0}
\setcounter{subparagraph}{0}
\setcounter{figure}{1}
\setcounter{table}{0}
\setcounter{ContinuedFloat}{0}
\setcounter{subfigure}{0}
\setcounter{subtable}{0}
\setcounter{parentequation}{0}
\setcounter{pp@next@reset}{0}
\setcounter{@pps}{0}
\setcounter{@ppsavesec}{0}
\setcounter{@ppsaveapp}{0}
}
