\relax 
\citation{1}
\citation{2}
\citation{3}
\citation{13}
\citation{14}
\citation{18}
\@writefile{toc}{\contentsline {chapter}{\numberline {3}Modeling and Design}{14}}
\@writefile{lof}{\addvspace {10\p@ }}
\@writefile{lot}{\addvspace {10\p@ }}
\newlabel{Modeling and Design}{{3}{14}}
\@writefile{toc}{\contentsline {section}{\numberline {3.1}Motivation:}{14}}
\@writefile{toc}{\contentsline {section}{\numberline {3.2}Simple Client-Server Model:}{14}}
\@writefile{toc}{\contentsline {section}{\numberline {3.3}Berkeley Sockets:}{15}}
\@writefile{lof}{\contentsline {figure}{\numberline {3.1}{\ignorespaces \emph  {Client-Server Model}\relax }}{16}}
\providecommand*\caption@xref[2]{\@setref\relax\@undefined{#1}}
\newlabel{Client-Server Model}{{3.1}{16}}
\@writefile{lof}{\contentsline {figure}{\numberline {3.2}{\ignorespaces \emph  {Client-Server Model using Berkeley Sockets}\relax }}{17}}
\newlabel{Berkeley Sockets}{{3.2}{17}}
\@writefile{toc}{\contentsline {section}{\numberline {3.4}Problem Statement}{18}}
\@writefile{toc}{\contentsline {section}{\numberline {3.5}Technological Background}{19}}
\@writefile{toc}{\contentsline {subsection}{\numberline {3.5.1}Ubuntu}{19}}
\@writefile{toc}{\contentsline {subsection}{\numberline {3.5.2}Python}{20}}
\@writefile{toc}{\contentsline {subsubsection}{Features}{20}}
\@writefile{toc}{\contentsline {subsection}{\numberline {3.5.3}Twisted Python}{21}}
\@writefile{toc}{\contentsline {subsubsection}{Core Ideas}{23}}
\@writefile{lof}{\contentsline {figure}{\numberline {3.3}{\ignorespaces \emph  {Comparing single-threaded, multithreaded, and event-driven program flow}\relax }}{24}}
\newlabel{Comparing single-threaded, multithreaded, and event-driven program flow}{{3.3}{24}}
\@writefile{toc}{\contentsline {subsubsection}{Event Driven Programming}{24}}
\@writefile{toc}{\contentsline {subsubsection}{Twisted Modules And Framework}{25}}
\@writefile{toc}{\contentsline {subsection}{\numberline {3.5.4}Wireshark}{28}}
\@writefile{toc}{\contentsline {subsubsection}{Packet Sniffer}{28}}
\@writefile{toc}{\contentsline {subsubsection}{Getting And Running Wireshark}{28}}
\@writefile{lof}{\contentsline {figure}{\numberline {3.4}{\ignorespaces \emph  {Schematic diagram of Packet Sniffer}\relax }}{29}}
\newlabel{Schematic diagram of Packet Sniffer}{{3.4}{29}}
\@writefile{toc}{\contentsline {subsection}{\numberline {3.5.5}Network Interfaces}{29}}
\@writefile{toc}{\contentsline {subsubsection}{Ethernet}{29}}
\@writefile{lof}{\contentsline {figure}{\numberline {3.5}{\ignorespaces \emph  {Wireshark GUI}\relax }}{30}}
\newlabel{Wireshark GUI}{{3.5}{30}}
\@writefile{toc}{\contentsline {subsubsection}{WiFi}{31}}
\@setckpt{ch3Model}{
\setcounter{page}{32}
\setcounter{equation}{0}
\setcounter{enumi}{0}
\setcounter{enumii}{0}
\setcounter{enumiii}{0}
\setcounter{enumiv}{0}
\setcounter{footnote}{0}
\setcounter{mpfootnote}{0}
\setcounter{part}{0}
\setcounter{chapter}{3}
\setcounter{section}{5}
\setcounter{subsection}{5}
\setcounter{subsubsection}{0}
\setcounter{paragraph}{0}
\setcounter{subparagraph}{0}
\setcounter{figure}{5}
\setcounter{table}{0}
\setcounter{ContinuedFloat}{0}
\setcounter{subfigure}{0}
\setcounter{subtable}{0}
\setcounter{parentequation}{0}
\setcounter{pp@next@reset}{0}
\setcounter{@pps}{0}
\setcounter{@ppsavesec}{0}
\setcounter{@ppsaveapp}{0}
}
