\relax 
\@writefile{toc}{\contentsline {chapter}{\numberline {4}Measurements and Evaluation}{19}}
\@writefile{lof}{\addvspace {10\p@ }}
\@writefile{lot}{\addvspace {10\p@ }}
\newlabel{Measurements}{{4}{19}}
\@writefile{lof}{\contentsline {figure}{\numberline {4.1}{\ignorespaces \emph  {Client compromise rates at various adversarial bandwidths, where WBU is the amount of weighted bandwidth units assigned to the malicious relay.}\relax }}{20}}
\newlabel{Fig2}{{4.1}{20}}
\@writefile{lot}{\contentsline {table}{\numberline {4.1}{\ignorespaces \emph  {Up and down times, in hours, of guard relays for Apr-Nov 2011}\relax }}{20}}
\newlabel{Table1}{{4.1}{20}}
\@writefile{toc}{\contentsline {section}{\numberline {4.1}Natural Churn}{20}}
\newlabel{NaturalChurn}{{4.1}{20}}
\@writefile{lof}{\contentsline {figure}{\numberline {4.2}{\ignorespaces \emph  {Router up and down times for all routers and for guards alone}\relax }}{21}}
\newlabel{Fig3}{{4.2}{21}}
\@writefile{lof}{\contentsline {figure}{\numberline {4.3}{\ignorespaces \emph  {Effects of natural churn and guard rotation on active guard list compromise}\relax }}{22}}
\newlabel{Fig4}{{4.3}{22}}
\@writefile{toc}{\contentsline {section}{\numberline {4.2}Guard Rotation}{22}}
\@writefile{lof}{\contentsline {figure}{\numberline {4.4}{\ignorespaces \emph  {Comparison of natural churn and guard rotation effects on clients' exposure to guards}\relax }}{24}}
\newlabel{Fig5}{{4.4}{24}}
\@writefile{toc}{\contentsline {section}{\numberline {4.3}Guard List Size}{25}}
\@writefile{lof}{\contentsline {figure}{\numberline {4.5}{\ignorespaces \emph  {Client compromise rates at various client guard list sizes, with guard rotation}\relax }}{25}}
\newlabel{Fig6}{{4.5}{25}}
\@writefile{lof}{\contentsline {figure}{\numberline {4.6}{\ignorespaces \emph  {Client compromise rates at various client guard list sizes, without guard rotation}\relax }}{26}}
\newlabel{Fig7}{{4.6}{26}}
\@writefile{lof}{\contentsline {figure}{\numberline {4.7}{\ignorespaces \emph  {Client guard exposure with guard rotation at various guard list sizes}\relax }}{27}}
\newlabel{Fig8}{{4.7}{27}}
\@writefile{lof}{\contentsline {figure}{\numberline {4.8}{\ignorespaces \emph  {Client guard exposure without guard rotation at various guard list sizes}\relax }}{28}}
\newlabel{Fig9}{{4.8}{28}}
\@writefile{toc}{\contentsline {section}{\numberline {4.4}Available Bandwidth}{28}}
\@writefile{lof}{\contentsline {figure}{\numberline {4.9}{\ignorespaces \emph  {Client's expected circuit performance with guard rotation at various guard list sizes. Performance results without guard rotation are nearly identical}\relax }}{29}}
\newlabel{Fig10}{{4.9}{29}}
\@setckpt{ch4Measurements}{
\setcounter{page}{30}
\setcounter{equation}{0}
\setcounter{enumi}{3}
\setcounter{enumii}{0}
\setcounter{enumiii}{0}
\setcounter{enumiv}{0}
\setcounter{footnote}{0}
\setcounter{mpfootnote}{0}
\setcounter{part}{0}
\setcounter{chapter}{4}
\setcounter{section}{4}
\setcounter{subsection}{0}
\setcounter{subsubsection}{0}
\setcounter{paragraph}{0}
\setcounter{subparagraph}{0}
\setcounter{figure}{9}
\setcounter{table}{1}
\setcounter{ContinuedFloat}{0}
\setcounter{subfigure}{0}
\setcounter{subtable}{0}
\setcounter{parentequation}{0}
\setcounter{pp@next@reset}{0}
\setcounter{@pps}{0}
\setcounter{@ppsavesec}{0}
\setcounter{@ppsaveapp}{0}
}
