\relax 
\@writefile{toc}{\contentsline {chapter}{\numberline {4}Technologies Used}{18}}
\@writefile{lof}{\addvspace {10\p@ }}
\@writefile{lot}{\addvspace {10\p@ }}
\newlabel{Technologies Used}{{4}{18}}
\@writefile{toc}{\contentsline {section}{\numberline {4.1}Ubuntu}{18}}
\@writefile{toc}{\contentsline {section}{\numberline {4.2}Python}{19}}
\@writefile{toc}{\contentsline {subsection}{\numberline {4.2.1}Features}{19}}
\@writefile{toc}{\contentsline {section}{\numberline {4.3}Twisted Python}{21}}
\@writefile{toc}{\contentsline {subsection}{\numberline {4.3.1}Features}{21}}
\@writefile{toc}{\contentsline {subsection}{\numberline {4.3.2}Core Ideas}{22}}
\@writefile{toc}{\contentsline {subsection}{\numberline {4.3.3}Event Driven Programming}{23}}
\@writefile{lof}{\contentsline {figure}{\numberline {4.1}{\ignorespaces \emph  {Comparing single-threaded, multithreaded, and event-driven program flow}\relax }}{24}}
\newlabel{Comparing single-threaded, multithreaded, and event-driven program flow}{{4.1}{24}}
\@writefile{toc}{\contentsline {subsection}{\numberline {4.3.4}Twisted modules and framework}{25}}
\@writefile{toc}{\contentsline {section}{\numberline {4.4}Wireshark}{28}}
\@writefile{toc}{\contentsline {subsection}{\numberline {4.4.1}Packet Sniffer}{28}}
\@writefile{toc}{\contentsline {subsection}{\numberline {4.4.2}Getting and Running Wireshark}{28}}
\@writefile{toc}{\contentsline {section}{\numberline {4.5}Network Interfaces}{28}}
\@writefile{lof}{\contentsline {figure}{\numberline {4.2}{\ignorespaces \emph  {Schematic diagram of Packet Sniffer}\relax }}{29}}
\newlabel{Schematic diagram of Packet Sniffer}{{4.2}{29}}
\@writefile{lof}{\contentsline {figure}{\numberline {4.3}{\ignorespaces \emph  {Wireshark GUI}\relax }}{29}}
\newlabel{Wireshark GUI}{{4.3}{29}}
\@writefile{toc}{\contentsline {subsection}{\numberline {4.5.1}Ethernet}{30}}
\@writefile{toc}{\contentsline {subsection}{\numberline {4.5.2}WiFi}{31}}
\@setckpt{ch4SoftwaresUsed}{
\setcounter{page}{32}
\setcounter{equation}{0}
\setcounter{enumi}{0}
\setcounter{enumii}{0}
\setcounter{enumiii}{0}
\setcounter{enumiv}{0}
\setcounter{footnote}{0}
\setcounter{mpfootnote}{0}
\setcounter{part}{0}
\setcounter{chapter}{4}
\setcounter{section}{5}
\setcounter{subsection}{2}
\setcounter{subsubsection}{0}
\setcounter{paragraph}{0}
\setcounter{subparagraph}{0}
\setcounter{figure}{3}
\setcounter{table}{0}
\setcounter{ContinuedFloat}{0}
\setcounter{subfigure}{0}
\setcounter{subtable}{0}
\setcounter{parentequation}{0}
\setcounter{pp@next@reset}{0}
\setcounter{@pps}{0}
\setcounter{@ppsavesec}{0}
\setcounter{@ppsaveapp}{0}
}
