\relax 
\@writefile{toc}{\contentsline {chapter}{\numberline {4}Implementation and Analysis}{33}}
\@writefile{lof}{\addvspace {10\p@ }}
\@writefile{lot}{\addvspace {10\p@ }}
\newlabel{Work-Flow and Analysis}{{4}{33}}
\@writefile{toc}{\contentsline {section}{\numberline {4.1}Client-Server Communication}{33}}
\citation{10}
\citation{11}
\@writefile{toc}{\contentsline {section}{\numberline {4.2}The Twisted Modules Used}{34}}
\@writefile{lof}{\contentsline {figure}{\numberline {4.1}{\ignorespaces \emph  {Block Diagram For Interface Connection}\relax }}{35}}
\newlabel{FigDoubleInterface}{{4.1}{35}}
\@writefile{toc}{\contentsline {section}{\numberline {4.3}Algorithms}{35}}
\@writefile{toc}{\contentsline {subsection}{\numberline {4.3.1}Double Interface Connection}{38}}
\@writefile{toc}{\contentsline {subsection}{\numberline {4.3.2}Single Interface Connection}{39}}
\@writefile{toc}{\contentsline {section}{\numberline {4.4}Working Procedure}{41}}
\@writefile{toc}{\contentsline {section}{\numberline {4.5}Performance Analysis}{42}}
\@writefile{lot}{\contentsline {table}{\numberline {4.1}{\ignorespaces \emph  {Double Connection File Transfer}\relax }}{42}}
\newlabel{lrtTab}{{4.1}{42}}
\@writefile{lot}{\contentsline {table}{\numberline {4.2}{\ignorespaces \emph  {Single Connection File Transfer}\relax }}{42}}
\newlabel{lrtTab1}{{4.2}{42}}
\@writefile{lof}{\contentsline {figure}{\numberline {4.2}{\ignorespaces \emph  { File size v/s Time of File Transfer for Run-1.}\relax }}{43}}
\newlabel{Graph2}{{4.2}{43}}
\@writefile{lof}{\contentsline {figure}{\numberline {4.3}{\ignorespaces \emph  { File size v/s Time of File Transfer for Run-2.}\relax }}{43}}
\newlabel{Graph1}{{4.3}{43}}
\@setckpt{ch5Analysis}{
\setcounter{page}{44}
\setcounter{equation}{0}
\setcounter{enumi}{0}
\setcounter{enumii}{0}
\setcounter{enumiii}{0}
\setcounter{enumiv}{0}
\setcounter{footnote}{0}
\setcounter{mpfootnote}{0}
\setcounter{part}{0}
\setcounter{chapter}{4}
\setcounter{section}{5}
\setcounter{subsection}{0}
\setcounter{subsubsection}{0}
\setcounter{paragraph}{0}
\setcounter{subparagraph}{0}
\setcounter{figure}{3}
\setcounter{table}{2}
\setcounter{ContinuedFloat}{0}
\setcounter{subfigure}{0}
\setcounter{subtable}{0}
\setcounter{parentequation}{0}
\setcounter{pp@next@reset}{0}
\setcounter{@pps}{0}
\setcounter{@ppsavesec}{0}
\setcounter{@ppsaveapp}{0}
}
