\relax 
\@writefile{toc}{\contentsline {chapter}{\numberline {5}Discussion}{30}}
\@writefile{lof}{\addvspace {10\p@ }}
\@writefile{lot}{\addvspace {10\p@ }}
\newlabel{Discussion}{{5}{30}}
\@writefile{lot}{\contentsline {table}{\numberline {5.1}{\ignorespaces \emph  {Median guard bandwidth (WBU) from Apr-Nov 2011}\relax }}{30}}
\newlabel{Table2}{{5.1}{30}}
\@writefile{lof}{\contentsline {figure}{\numberline {5.1}{\ignorespaces \emph  {Guard longevity during Apr-Nov 2011}\relax }}{33}}
\newlabel{Fig11}{{5.1}{33}}
\@setckpt{ch5Discussion}{
\setcounter{page}{36}
\setcounter{equation}{0}
\setcounter{enumi}{3}
\setcounter{enumii}{0}
\setcounter{enumiii}{0}
\setcounter{enumiv}{0}
\setcounter{footnote}{0}
\setcounter{mpfootnote}{0}
\setcounter{part}{0}
\setcounter{chapter}{5}
\setcounter{section}{0}
\setcounter{subsection}{0}
\setcounter{subsubsection}{0}
\setcounter{paragraph}{0}
\setcounter{subparagraph}{0}
\setcounter{figure}{1}
\setcounter{table}{1}
\setcounter{ContinuedFloat}{0}
\setcounter{subfigure}{0}
\setcounter{subtable}{0}
\setcounter{parentequation}{0}
\setcounter{pp@next@reset}{0}
\setcounter{@pps}{0}
\setcounter{@ppsavesec}{0}
\setcounter{@ppsaveapp}{0}
}
