\relax 
\citation{wright2003defending}
\citation{wright2004predecessor}
\citation{overlier2006locating}
\@writefile{toc}{\contentsline {chapter}{\numberline {6}Related Work}{36}}
\@writefile{lof}{\addvspace {10\p@ }}
\@writefile{lot}{\addvspace {10\p@ }}
\newlabel{RelatedWork}{{6}{36}}
\citation{bauer2007low}
\citation{TorSpecUptimeSanityChecking}
\citation{perry2009torflow}
\citation{TorSpecNoSharingIP}
\citation{borisov2007denial}
\citation{wright2004predecessor}
\citation{abbott2007browser}
\@setckpt{ch6RelatedWork}{
\setcounter{page}{39}
\setcounter{equation}{0}
\setcounter{enumi}{3}
\setcounter{enumii}{0}
\setcounter{enumiii}{0}
\setcounter{enumiv}{0}
\setcounter{footnote}{0}
\setcounter{mpfootnote}{0}
\setcounter{part}{0}
\setcounter{chapter}{6}
\setcounter{section}{0}
\setcounter{subsection}{0}
\setcounter{subsubsection}{0}
\setcounter{paragraph}{0}
\setcounter{subparagraph}{0}
\setcounter{figure}{0}
\setcounter{table}{0}
\setcounter{ContinuedFloat}{0}
\setcounter{subfigure}{0}
\setcounter{subtable}{0}
\setcounter{parentequation}{0}
\setcounter{pp@next@reset}{0}
\setcounter{@pps}{0}
\setcounter{@ppsavesec}{0}
\setcounter{@ppsaveapp}{0}
}
