\relax 
\bibstyle{IEEEtran}
\bibdata{report.bib}
\bibcite{1}{1}
\bibcite{2}{2}
\bibcite{3}{3}
\bibcite{13}{4}
\bibcite{14}{5}
\bibcite{18}{6}
\bibcite{15}{7}
\@writefile{toc}{\contentsline {chapter}{Bibliography}{49}}
\bibcite{17}{8}
\bibcite{4}{9}
\bibcite{5}{10}
\bibcite{6}{11}
\bibcite{9}{12}
\bibcite{19}{13}
\bibcite{20}{14}
\bibcite{10}{15}
\bibcite{11}{16}
\bibcite{16}{17}
\bibcite{8}{18}
\@setckpt{Refs}{
\setcounter{page}{52}
\setcounter{equation}{0}
\setcounter{enumi}{0}
\setcounter{enumii}{0}
\setcounter{enumiii}{0}
\setcounter{enumiv}{18}
\setcounter{footnote}{0}
\setcounter{mpfootnote}{0}
\setcounter{part}{0}
\setcounter{chapter}{5}
\setcounter{section}{0}
\setcounter{subsection}{0}
\setcounter{subsubsection}{0}
\setcounter{paragraph}{0}
\setcounter{subparagraph}{0}
\setcounter{figure}{0}
\setcounter{table}{0}
\setcounter{ContinuedFloat}{0}
\setcounter{subfigure}{0}
\setcounter{subtable}{0}
\setcounter{parentequation}{0}
\setcounter{pp@next@reset}{0}
\setcounter{@pps}{1}
\setcounter{@ppsavesec}{5}
\setcounter{@ppsaveapp}{1}
}
