\relax 
\@input{firstpage.aux}
\select@language{english}
\@writefile{toc}{\select@language{english}}
\@writefile{lof}{\select@language{english}}
\@writefile{lot}{\select@language{english}}
\@writefile{toc}{~\hfill \textbf  {Page}\par }
\@input{certificate.aux}
\@input{acknowledgement.aux}
\@input{abstract.aux}
\@writefile{toc}{\contentsline {chapter}{List of Figures}{v}}
\@writefile{toc}{\contentsline {chapter}{List of Tables}{vi}}
\@input{blankpage.aux}
\@input{ch1Intro.aux}
\@input{blankpage.aux}
\@input{ch2LiteratureSurvey.aux}
\@input{blankpage.aux}
\@input{ch3Model.aux}
\@input{blankpage.aux}
\@input{ch5Analysis.aux}
\@input{blankpage.aux}
\@input{conclusion.aux}
\@input{blankpage.aux}
\@input{publications.aux}
\@input{blankpage.aux}
\@input{Refs.aux}
