\select@language {english}
\addvspace {10\p@ }
\addvspace {10\p@ }
\addvspace {10\p@ }
\addvspace {10\p@ }
\contentsline {table}{\numberline {4.1}{\ignorespaces \emph {Double Connection File Transfer}\relax }}{42}
\contentsline {table}{\numberline {4.2}{\ignorespaces \emph {Single Connection File Transfer}\relax }}{42}
\addvspace {10\p@ }
\addvspace {10\p@ }
